digraph email {
        label="Email architecture TPA-RFC-31 plan, torproject.org, October 2022"
        labelloc=bottom
        node [shape=rectangle]

        // a user

        user [shape=triangle]

        // all other boxes that don't do anything special with email
        tpoboxes [label="other TPA hosts"]
        // hosts that manage and send their own email
        mailhosts [color="orange" label="mail hosts\ngitlab, RT, CiviCRM"]
        LDAP [color="red"]
        //eugeni [color="red"]

        subgraph "clusterexternal" {
                label="external hosting provider\narchitecture may vary"
                submission [color=purple]
                mailboxes [color=purple]
                webmail [color=purple]
                mx [color=purple]
        }
        // external boxes
        dotdotdot [label="internet\nnon TPO mail hosts", shape=ellipse]
        // other hosts that currently masquerade as us
        masquerade [label="impersonators\nriseup, gmail, etc"]

        // all relations

        // eugeni handles basically everything except some rare
        // exceptions on mailhosts
        dotdotdot -> { LDAP, mx } [label="SMTP"]
        // users interact with those
        user -> submission [label="SMTP"]
        user -> mailboxes [label="IMAPS"]
        user -> webmail [label="HTTPS"]
        user -> masquerade -> user
        mailboxes -> masquerade -> submission

        { webmail, submission } -> dotdotdot
        mx -> mailboxes
        // those all relay mail to the outside
        { mx, LDAP } -> dotdotdot [label="SMTP"]
        // except those, who still go through the relay
        { mailhosts, tpoboxes } -> submission [label="SMTPS"]
        mailboxes -> { mailhosts, tpoboxes } [label="IMAPS"]
}
