digraph email {
        label="Email architecture, torproject.org, April 2022"
        labelloc=bottom
        node [shape=rectangle]

        // a user

        user [shape=triangle]

        // all other boxes that don't do anything special with email
        tpoboxes [label="other TPA hosts"]
        // hosts that manage and send their own email
        mailhosts [color="orange" label="mail hosts\ngitlab, RT, CiviCRM"]
        submission [color=orange]
        // legacy
        eugeni [color=red label="eugeni\nmailman, schleuder\nmx, relay"]
        // external boxes
        dotdotdot [label="internet\nnon TPO mail hosts", shape=ellipse]
        // other hosts that currently masquerade as us
        masquerade [label="impersonators\nriseup, gmail, etc"]

        // all relations

        // eugeni handles basically everything except some rare
        // exceptions on mailhosts
        dotdotdot -> { mailhosts, eugeni } [label="SMTP"]
        // users interact with those
        user -> submission [label="SMTP"]
        user -> eugeni [label="HTTP, SMTP"]
        user -> mailhosts [label="HTTP"]
        // those all relay mail to the outside
        { submission, mailhosts, eugeni, masquerade } -> dotdotdot [label="SMTP"]
        // except those, who still go through the relay
        tpoboxes -> eugeni [label="SMTPS"]
        // eugeni also forwards mails to the impersonators
        eugeni -> masquerade [label="SMTP"]
}
